Week 4a
…
---
# filter only the female penguins
### As always, exact spelling and capitalization matters

After filtering

```r
filter(.data = penguins, sex == "female" )
```

```
## # A tibble: 165 x 8
##    species island bill_length_mm bill_depth_mm flipper_length_~ body_mass_g sex  
##    <fct>   <fct>           <dbl>         <dbl>            <int>       <int> <fct>
##  1 Adelie  Torge~           39.5          17.4              186        3800 fema~
##  2 Adelie  Torge~           40.3          18                195        3250 fema~
##  3 Adelie  Torge~           36.7          19.3              193        3450 fema~
##  4 Adelie  Torge~           38.9          17.8              181        3625 fema~
##  5 Adelie  Torge~           41.1          17.6              182        3200 fema~
##  6 Adelie  Torge~           36.6          17.8              185        3700 fema~
##  7 Adelie  Torge~           38.7          19                195        3450 fema~
##  8 Adelie  Torge~           34.4          18.4              184        3325 fema~
##  9 Adelie  Biscoe           37.8          18.3              174        3400 fema~
## 10 Adelie  Biscoe           35.9          19.2              189        3800 fema~
## # ... with 155 more rows, and 1 more variable: year <int>
```
…
]

---

# Filter with multiple conditions

Select .orange[females] that are also .green[greater than 4000 g]

```r
filter(.data = penguins, sex == "female", body_mass_g >4000)
```

```
## # A tibble: 58 x 8
##    species island bill_length_mm bill_depth_mm flipper_length_~ body_mass_g sex  
##    <fct>   <fct>           <dbl>         <dbl>            <int>       <int> <fct>
##  1 Gentoo  Biscoe           46.1          13.2              211        4500 fema~
##  2 Gentoo  Biscoe           48.7          14.1              210        4450 fema~
##  3 Gentoo  Biscoe           46.5          13.5              210        4550 fema~
##  4 Gentoo  Biscoe           45.4          14.6              211        4800 fema~
##  5 Gentoo  Biscoe           43.3          13.4              209        4400 fema~
##  6 Gentoo  Biscoe           40.9          13.7              214        4650 fema~
##  7 Gentoo  Biscoe           45.5          13.7              214        4650 fema~
##  8 Gentoo  Biscoe           45.8          14.6              210        4200 fema~
##  9 Gentoo  Biscoe           42            13.5              210        4150 fema~
## 10 Gentoo  Biscoe           46.2          14.5              209        4800 fema~
## # ... with 48 more rows, and 1 more variable: year <int>
```
…
